{
    "_links": {
        "self": {
            "href": "http:\/\/default\/media\/2\/edit?_format=hal_json"
        },
        "type": {
            "href": "http:\/\/drupal.org\/rest\/type\/media\/image"
        },
        "http:\/\/drupal.org\/rest\/relation\/media\/image\/uid": [
            {
                "href": "http:\/\/default\/user\/1?_format=hal_json",
                "lang": "nl"
            }
        ],
        "http:\/\/drupal.org\/rest\/relation\/media\/image\/thumbnail": [
            {
                "href": "",
                "lang": "nl"
            }
        ],
        "http:\/\/drupal.org\/rest\/relation\/media\/image\/field_media_image": [
            {
                "href": "",
                "lang": "nl"
            }
        ]
    },
    "mid": [
        {
            "value": 2
        }
    ],
    "uuid": [
        {
            "value": "2a181f23-0af0-4dfb-b791-7f911eeca094"
        }
    ],
    "vid": [
        {
            "value": 2
        }
    ],
    "langcode": [
        {
            "value": "nl",
            "lang": "nl"
        }
    ],
    "bundle": [
        {
            "target_id": "image"
        }
    ],
    "revision_created": [
        {
            "value": "2020-01-01T19:26:04+00:00",
            "format": "Y-m-d\\TH:i:sP"
        }
    ],
    "status": [
        {
            "value": true,
            "lang": "nl"
        }
    ],
    "_embedded": {
        "http:\/\/drupal.org\/rest\/relation\/media\/image\/uid": [
            {
                "_links": {
                    "self": {
                        "href": "http:\/\/default\/user\/1?_format=hal_json"
                    },
                    "type": {
                        "href": "http:\/\/drupal.org\/rest\/type\/user\/user"
                    }
                },
                "uuid": [
                    {
                        "value": "4a7c4802-8a80-425c-abd9-255593726e4b"
                    }
                ],
                "lang": "nl"
            }
        ],
        "http:\/\/drupal.org\/rest\/relation\/media\/image\/thumbnail": [
            {
                "_links": {
                    "self": {
                        "href": ""
                    },
                    "type": {
                        "href": "http:\/\/drupal.org\/rest\/type\/file\/file"
                    }
                },
                "uuid": [
                    {
                        "value": "6c851303-2e9c-4c55-8bd4-95109e798b60"
                    }
                ],
                "lang": "nl",
                "alt": "5 kazen ravioli met spinazie",
                "title": null,
                "width": "1536",
                "height": "1024"
            }
        ],
        "http:\/\/drupal.org\/rest\/relation\/media\/image\/field_media_image": [
            {
                "_links": {
                    "self": {
                        "href": ""
                    },
                    "type": {
                        "href": "http:\/\/drupal.org\/rest\/type\/file\/file"
                    }
                },
                "uuid": [
                    {
                        "value": "6c851303-2e9c-4c55-8bd4-95109e798b60"
                    }
                ],
                "lang": "nl",
                "alt": "5 kazen ravioli met spinazie",
                "title": "",
                "width": "1536",
                "height": "1024"
            }
        ]
    },
    "name": [
        {
            "value": "5-kazen-ravioli-met-spinazie.jpg",
            "lang": "nl"
        }
    ],
    "created": [
        {
            "value": "2020-01-01T19:26:00+00:00",
            "lang": "nl",
            "format": "Y-m-d\\TH:i:sP"
        }
    ],
    "changed": [
        {
            "value": "2020-01-01T19:26:00+00:00",
            "lang": "nl",
            "format": "Y-m-d\\TH:i:sP"
        }
    ],
    "default_langcode": [
        {
            "value": true,
            "lang": "nl"
        }
    ],
    "revision_translation_affected": [
        {
            "value": true,
            "lang": "nl"
        }
    ],
    "path": [
        {
            "alias": null,
            "pid": null,
            "langcode": "nl",
            "lang": "nl"
        }
    ],
    "content_translation_source": [
        {
            "value": "und",
            "lang": "nl"
        }
    ],
    "content_translation_outdated": [
        {
            "value": false,
            "lang": "nl"
        }
    ]
}