{
    "_links": {
        "self": {
            "href": "http:\/\/default\/tags\/kip?_format=hal_json"
        },
        "type": {
            "href": "http:\/\/drupal.org\/rest\/type\/taxonomy_term\/tags"
        },
        "http:\/\/drupal.org\/rest\/relation\/taxonomy_term\/tags\/parent": [
            null
        ],
        "http:\/\/drupal.org\/rest\/relation\/taxonomy_term\/tags\/content_translation_uid": [
            {
                "href": "http:\/\/default\/user\/1?_format=hal_json",
                "lang": "nl"
            }
        ]
    },
    "tid": [
        {
            "value": 4
        }
    ],
    "uuid": [
        {
            "value": "1fad6e7c-0ceb-4a60-89d0-f90905943f7c"
        }
    ],
    "revision_id": [
        {
            "value": 4
        }
    ],
    "langcode": [
        {
            "value": "nl",
            "lang": "nl"
        }
    ],
    "vid": [
        {
            "target_id": "tags"
        }
    ],
    "revision_created": [
        {
            "value": "2020-01-01T19:35:40+00:00",
            "format": "Y-m-d\\TH:i:sP"
        }
    ],
    "status": [
        {
            "value": true,
            "lang": "nl"
        }
    ],
    "name": [
        {
            "value": "Kip",
            "lang": "nl"
        }
    ],
    "weight": [
        {
            "value": 0
        }
    ],
    "_embedded": {
        "http:\/\/drupal.org\/rest\/relation\/taxonomy_term\/tags\/parent": [
            null
        ],
        "http:\/\/drupal.org\/rest\/relation\/taxonomy_term\/tags\/content_translation_uid": [
            {
                "_links": {
                    "self": {
                        "href": "http:\/\/default\/user\/1?_format=hal_json"
                    },
                    "type": {
                        "href": "http:\/\/drupal.org\/rest\/type\/user\/user"
                    }
                },
                "uuid": [
                    {
                        "value": "4a7c4802-8a80-425c-abd9-255593726e4b"
                    }
                ],
                "lang": "nl"
            }
        ]
    },
    "changed": [
        {
            "value": "2020-01-01T19:35:40+00:00",
            "lang": "nl",
            "format": "Y-m-d\\TH:i:sP"
        }
    ],
    "default_langcode": [
        {
            "value": true,
            "lang": "nl"
        }
    ],
    "revision_translation_affected": [
        {
            "value": true,
            "lang": "nl"
        }
    ],
    "path": [
        {
            "alias": "\/tags\/kip",
            "pid": 4,
            "langcode": "nl",
            "lang": "nl"
        }
    ],
    "content_translation_source": [
        {
            "value": "und",
            "lang": "nl"
        }
    ],
    "content_translation_outdated": [
        {
            "value": false,
            "lang": "nl"
        }
    ],
    "content_translation_created": [
        {
            "value": "2020-01-01T19:35:40+00:00",
            "lang": "nl",
            "format": "Y-m-d\\TH:i:sP"
        }
    ]
}